Geospatial Analytics - Geocoding using API
…
summary(mpsz$BUSINESS_COUNT)

   Min. 1st Qu.  Median    Mean 3rd Qu.    Max. 
   0.00    0.00    2.00   19.73   13.00  307.00 

4. Integrate data

flow_data is an sf tibble data.frame and the features are polylines linking the centroid of origins and destination planning subzone.

flow_data <- read_rds("data/rds/SIM_data.rds")
flow_data

# A tibble: 14,274 × 12
# Groups:   ORIGIN_SZ [279]
   ORIGIN_SZ DESTIN_SZ TRIPS FlowNoIntra offset  dist ORIGIN_AGE7_12
   <chr>     <chr>     <dbl>       <dbl>  <dbl> <dbl>          <dbl>
 1 AMSZ01    AMSZ02     6790        6790      1  810.            310
 2 AMSZ01    AMSZ03     7242        7242      1 1361.            310
 3 AMSZ01    AMSZ04     2048        2048      1  840.            310
 4 AMSZ01    AMSZ05     4594        4594      1 1077.            310
 5 AMSZ01    AMSZ06     1767        1767      1  805.            310
 6 AMSZ01    AMSZ07     1136        1136      1 1799.            310
 7 AMSZ01    AMSZ08     1703        1703      1 2576.            310
 8 AMSZ01    AMSZ09     1494        1494      1 1204.            310
 9 AMSZ01    AMSZ10       41          41      1 1418.            310
10 AMSZ01    AMSZ11      393         393      1 2314.            310
# ℹ 14,264 more rows
# ℹ 5 more variables: ORIGIN_AGE13_24 <dbl>, ORIGIN_AGE25_64 <dbl>,
#   DESTIN_AGE7_12 <dbl>, DESTIN_AGE13_24 <dbl>, DESTIN_AGE25_64 <dbl>
…
